epoc (ms),elapsed (s)_x,x-axis (g),y-axis (g),z-axis (g),x-axis (m/s^2),y-axis (m/s^2),z-axis (m/s^2),elapsed (s)_y,yaw (deg),class
1671451710043,47.219,-0.083,-0.008,0.024,-0.81395195,-0.0784532,0.2353596,47.609,359.522,right
1671451710052,47.228,-0.076,-0.009,0.03,-0.7453053999999999,-0.08825984999999999,0.29419949999999995,47.618,359.398,right
1671451710062,47.238,-0.072,-0.011,0.028,-0.7060787999999999,-0.10787314999999999,0.2745862,47.628,359.274,right
1671451710072,47.248,-0.059,-0.022,0.022,-0.57859235,-0.21574629999999997,0.21574629999999997,47.639,359.165,right
1671451710082,47.258,-0.044,-0.029,0.019,-0.43149259999999995,-0.28439285,0.18632634999999997,47.649,359.057,right
1671451710091,47.267,-0.05,-0.027,0.021,-0.4903325,-0.26477955,0.20593965,47.659,358.94,right
1671451710101,47.277,-0.054,-0.02,0.018,-0.5295591,-0.196133,0.17651969999999997,47.668,358.814,right
1671451710112,47.288,-0.049,-0.016,0.018,-0.48052585,-0.1569064,0.17651969999999997,47.678,358.665,right
1671451710122,47.298,-0.041,-0.019,0.026,-0.40207265,-0.18632634999999997,0.25497289999999995,47.688,358.489,right
1671451710131,47.307,-0.033,-0.02,0.024,-0.32361945,-0.196133,0.2353596,47.699,358.271,right
1671451710141,47.317,-0.007,-0.029,0.011,-0.06864655,-0.28439285,0.10787314999999999,47.707,357.989,right
1671451710151,47.327,0.022,-0.049,0.024,0.21574629999999997,-0.48052585,0.2353596,47.718,357.611,right
1671451710162,47.338,0.028,-0.052,0.049,0.2745862,-0.5099457999999999,0.48052585,47.728,357.127,right
1671451710172,47.348,-0.001,-0.042,0.047,-0.00980665,-0.4118793,0.46091255,47.738,356.528,right
1671451710181,47.357,-0.03,-0.04,0.031,-0.29419949999999995,-0.392266,0.30400615,47.747,355.856,right
1671451710191,47.367,-0.084,-0.035,0.013,-0.8237586,-0.34323275000000003,0.12748644999999997,47.757,355.181,right
1671451710201,47.377,-0.114,-0.025,-0.015,-1.1179581,-0.24516625,-0.14709974999999997,47.767,354.552,right
1671451710211,47.387,-0.068,-0.032,-0.03,-0.6668522,-0.3138128,-0.29419949999999995,47.778,354.023,right
1671451710222,47.398,-0.034,-0.024,-0.029,-0.3334261,-0.2353596,-0.28439285,47.788,353.631,right
1671451710230,47.406,-0.019,0.008,-0.054,-0.18632634999999997,0.0784532,-0.5295591,47.797,353.387,right
1671451710241,47.417,0.018,0.018,-0.08,0.17651969999999997,0.17651969999999997,-0.784532,47.807,353.287,right
1671451710251,47.427,0.061,-0.002,-0.083,0.5982056499999999,-0.0196133,-0.81395195,47.817,353.326,right
1671451710261,47.437,0.093,-0.021,-0.075,0.9120184499999999,-0.20593965,-0.73549875,47.827,353.492,right
1671451710271,47.447,0.11,-0.028,-0.056,1.0787315,-0.2745862,-0.5491724,47.836,353.747,right
1671451710282,47.458,0.123,-0.039,-0.003,1.2062179499999999,-0.38245935,-0.02941995,47.848,354.04,right
1671451710290,47.466,0.108,-0.034,0.04,1.0591182,-0.3334261,0.392266,47.857,354.33,right
1671451710301,47.477,0.08,-0.032,0.026,0.784532,-0.3138128,0.25497289999999995,47.867,354.589,right
1671451710311,47.487,0.064,-0.046,-0.004,0.6276256,-0.45110589999999995,-0.0392266,47.877,354.777,right
1671451710321,47.497,0.058,-0.062,-0.014,0.5687857,-0.6080123,-0.1372931,47.886,354.886,right
1671451710330,47.506,0.061,-0.068,-0.015,0.5982056499999999,-0.6668522,-0.14709974999999997,47.896,354.891,right
1671451710340,47.516,0.061,-0.062,-0.009,0.5982056499999999,-0.6080123,-0.08825984999999999,47.907,354.793,right
1671451710350,47.526,0.028,-0.047,-0.005,0.2745862,-0.46091255,-0.04903325,47.917,354.6,right
1671451710361,47.537,-0.014,-0.03,-0.019,-0.1372931,-0.29419949999999995,-0.18632634999999997,47.927,354.334,right
1671451710371,47.547,-0.032,-0.023,-0.029,-0.3138128,-0.22555294999999997,-0.28439285,47.936,354.028,right
1671451710380,47.556,-0.042,-0.029,0.002,-0.4118793,-0.28439285,0.0196133,47.946,353.711,right
1671451710390,47.566,-0.062,-0.025,0.022,-0.6080123,-0.24516625,0.21574629999999997,47.956,353.412,right
1671451710400,47.576,-0.076,-0.003,0.028,-0.7453053999999999,-0.02941995,0.2745862,47.967,353.164,right
1671451710411,47.587,-0.079,0.01,0.051,-0.77472535,0.0980665,0.50013915,47.975,352.985,right
1671451710421,47.597,-0.071,0.009,0.058,-0.6962721499999999,0.08825984999999999,0.5687857,47.986,352.885,right
1671451710430,47.606,-0.056,0.007,0.021,-0.5491724,0.06864655,0.20593965,47.996,352.865,right
1671451710440,47.616,-0.051,0.008,-0.025,-0.50013915,0.0784532,-0.24516625,48.006,352.92,right
1671451710450,47.626,-0.023,0.013,-0.054,-0.22555294999999997,0.12748644999999997,-0.5295591,48.015,353.02,right
1671451710460,47.636,0.03,0.009,-0.067,0.29419949999999995,0.08825984999999999,-0.65704555,48.025,353.142,right
1671451710469,47.645,0.062,0.008,-0.067,0.6080123,0.0784532,-0.65704555,48.035,353.261,right
1671451710479,47.655,0.073,0.007,-0.074,0.7158854499999999,0.06864655,-0.7256921,48.046,353.357,right
1671451710490,47.666,0.092,0.0,-0.082,0.9022117999999999,0.0,-0.8041453,48.055,353.416,right
1671451710500,47.676,0.118,-0.007,-0.064,1.1571847,-0.06864655,-0.6276256,48.065,353.422,right
1671451710510,47.686,0.135,-0.006,-0.032,1.32389775,-0.0588399,-0.3138128,48.075,353.384,right
1671451710519,47.695,0.11,0.005,-0.0,1.0787315,0.04903325,-0.0,48.085,353.301,right
1671451710531,47.707,0.082,0.014,0.008,0.8041453,0.1372931,0.0784532,48.104,353.061,right
1671451710539,47.715,0.079,0.013,0.015,0.77472535,0.12748644999999997,0.14709974999999997,48.104,353.061,right
1671451710550,47.726,0.08,0.006,0.038,0.784532,0.0588399,0.37265269999999995,48.115,352.92,right
1671451710560,47.736,0.076,0.001,0.035,0.7453053999999999,0.00980665,0.34323275000000003,48.125,352.77,right
1671451710569,47.745,0.072,-0.016,0.043,0.7060787999999999,-0.1569064,0.4216859499999999,48.135,352.636,right
1671451710579,47.755,0.048,-0.037,0.025,0.4707192,-0.36284605,0.24516625,48.144,352.526,right
1671451710589,47.765,0.056,-0.034,-0.019,0.5491724,-0.3334261,-0.18632634999999997,48.154,352.449,right
1671451710599,47.775,0.083,-0.005,-0.033,0.81395195,-0.04903325,-0.32361945,48.164,352.42,right
1671451710610,47.786,0.136,-0.008,-0.047,1.3337044,-0.0784532,-0.46091255,48.175,352.426,right
1671451710619,47.795,0.178,-0.015,-0.055,1.7455836999999998,-0.14709974999999997,-0.53936575,48.185,352.454,right
1671451710629,47.805,0.213,-0.017,-0.064,2.08881645,-0.16671305,-0.6276256,48.194,352.489,right
1671451710639,47.815,0.209,-0.035,-0.052,2.04958985,-0.34323275000000003,-0.5099457999999999,48.204,352.521,right
1671451710649,47.825,0.13,-0.059,-0.041,1.2748645,-0.57859235,-0.40207265,48.214,352.558,right
1671451710660,47.836,0.013,-0.043,-0.051,0.12748644999999997,-0.4216859499999999,-0.50013915,48.233,352.687,right
1671451710668,47.844,-0.075,0.002,-0.123,-0.73549875,0.0196133,-1.2062179499999999,48.233,352.687,right
1671451710679,47.855,-0.083,0.033,-0.135,-0.81395195,0.32361945,-1.32389775,48.244,352.805,right
1671451710689,47.865,-0.068,0.07,-0.109,-0.6668522,0.6864655000000001,-1.06892485,48.254,352.973,right
1671451710699,47.875,-0.059,0.085,-0.09,-0.57859235,0.83356525,-0.8825985,48.273,353.356,right
1671451710709,47.885,-0.052,0.046,-0.065,-0.5099457999999999,0.45110589999999995,-0.63743225,48.283,353.535,right
1671451710718,47.894,-0.085,-0.002,-0.047,-0.83356525,-0.0196133,-0.46091255,48.283,353.535,right
1671451710728,47.904,-0.116,-0.036,0.002,-1.1375714,-0.35303939999999995,0.0196133,48.293,353.689,right
1671451710739,47.915,-0.146,-0.077,-0.036,-1.4317708999999998,-0.7551120499999999,-0.35303939999999995,48.304,353.812,right
1671451710749,47.925,-0.131,-0.117,-0.084,-1.2846711499999999,-1.14737805,-0.8237586,48.323,353.925,right
1671451710759,47.935,-0.059,-0.125,-0.077,-0.57859235,-1.22583125,-0.7551120499999999,48.333,353.876,right
1671451710769,47.945,-0.028,-0.088,-0.06,-0.2745862,-0.8629851999999999,-0.5883989999999999,48.343,353.758,right
1671451710778,47.954,-0.036,-0.062,-0.079,-0.35303939999999995,-0.6080123,-0.77472535,48.343,353.758,right
1671451710788,47.964,-0.017,-0.087,-0.031,-0.16671305,-0.8531785499999999,-0.30400615,48.362,353.402,right
1671451710799,47.975,-0.113,-0.087,0.024,-1.10815145,-0.8531785499999999,0.2353596,48.372,353.205,right
1671451710809,47.985,-0.262,-0.07,0.011,-2.5693422999999997,-0.6864655000000001,0.10787314999999999,48.383,353.013,right
1671451710818,47.994,-0.326,-0.056,-0.022,-3.1969678999999998,-0.5491724,-0.21574629999999997,48.383,353.013,right
1671451710828,48.004,-0.287,-0.081,0.054,-2.8145085499999998,-0.7943386499999999,0.5295591,48.393,352.807,right
1671451710838,48.014,-0.203,-0.165,0.153,-1.99074995,-1.61809725,1.5004174499999998,48.403,352.628,right
1671451710849,48.025,-0.178,-0.255,0.199,-1.7455836999999998,-2.5006957499999998,1.95152335,48.422,352.429,right
1671451710859,48.035,-0.239,-0.298,0.225,-2.3437893499999998,-2.9223817,2.20649625,48.432,352.43,right
1671451710868,48.044,-0.333,-0.271,0.216,-3.26561445,-2.65760215,2.1182364,48.432,352.43,right
1671451710878,48.054,-0.326,-0.232,0.194,-3.1969678999999998,-2.2751428,1.9024900999999999,48.452,352.574,right
1671451710888,48.064,-0.209,-0.196,0.128,-2.04958985,-1.9221034,1.2552512,48.462,352.655,right
1671451710898,48.074,-0.088,-0.19,0.063,-0.8629851999999999,-1.8632635,0.61781895,48.472,352.706,right
1671451710907,48.083,-0.072,-0.181,0.021,-0.7060787999999999,-1.77500365,0.20593965,48.472,352.706,right
1671451710917,48.093,-0.124,-0.14,-0.044,-1.2160246,-1.3729310000000001,-0.43149259999999995,48.482,352.742,right
1671451710928,48.104,-0.154,-0.087,-0.085,-1.5102240999999998,-0.8531785499999999,-0.83356525,48.493,352.758,right
1671451710938,48.114,-0.163,-0.052,-0.098,-1.5984839499999999,-0.5099457999999999,-0.9610517,48.512,352.761,right
1671451710948,48.124,-0.161,0.003,-0.094,-1.57887065,0.02941995,-0.9218251,48.522,352.729,right
1671451710957,48.133,-0.158,0.051,-0.083,-1.5494507,0.50013915,-0.81395195,48.522,352.729,right
1671451710967,48.143,-0.136,0.069,-0.075,-1.3337044,0.67665885,-0.73549875,48.541,352.627,right
1671451710977,48.153,-0.134,0.088,-0.025,-1.3140911,0.8629851999999999,-0.24516625,48.551,352.577,right
1671451710988,48.164,-0.152,0.077,0.041,-1.4906107999999998,0.7551120499999999,0.40207265,48.561,352.543,right
1671451710998,48.174,-0.157,0.046,0.113,-1.53964405,0.45110589999999995,1.10815145,48.572,352.528,right
1671451711007,48.183,-0.134,0.043,0.156,-1.3140911,0.4216859499999999,1.5298374,48.572,352.528,right
1671451711017,48.193,-0.078,0.039,0.192,-0.7649187,0.38245935,1.8828768,48.591,352.562,right
1671451711027,48.203,-0.01,0.04,0.213,-0.0980665,0.392266,2.08881645,48.601,352.598,right
1671451711037,48.213,0.054,0.026,0.203,0.5295591,0.25497289999999995,1.99074995,48.611,352.646,right
1671451711048,48.224,0.114,0.017,0.166,1.1179581,0.16671305,1.6279039,48.621,352.703,right
1671451711057,48.233,0.164,0.005,0.124,1.6082906,0.04903325,1.2160246,48.63,352.747,right
1671451711067,48.243,0.174,-0.009,0.074,1.7063570999999997,-0.08825984999999999,0.7256921,48.64,352.776,right
1671451711077,48.253,0.166,0.0,0.006,1.6279039,0.0,0.0588399,48.651,352.799,right
1671451711087,48.263,0.157,0.015,-0.054,1.53964405,0.14709974999999997,-0.5295591,48.661,352.829,right
1671451711098,48.274,0.14,0.025,-0.085,1.3729310000000001,0.24516625,-0.83356525,48.67,352.868,right
1671451711106,48.282,0.133,0.02,-0.094,1.30428445,0.196133,-0.9218251,48.68,352.901,right
1671451711117,48.293,0.128,0.018,-0.101,1.2552512,0.17651969999999997,-0.99047165,48.69,352.94,right
1671451711127,48.303,0.141,0.024,-0.106,1.3827376499999997,0.2353596,-1.0395048999999998,48.701,352.991,right
1671451711137,48.313,0.145,0.029,-0.102,1.4219642499999998,0.28439285,-1.0002783,48.711,353.055,right
1671451711147,48.323,0.129,0.029,-0.091,1.26505785,0.28439285,-0.8924051499999999,48.72,353.13,right
1671451711156,48.332,0.115,0.022,-0.079,1.12776475,0.21574629999999997,-0.77472535,48.73,353.216,right
1671451711166,48.342,0.103,0.015,-0.059,1.01008495,0.14709974999999997,-0.57859235,48.74,353.303,right
1671451711177,48.353,0.098,0.012,-0.039,0.9610517,0.1176798,-0.38245935,48.75,353.394,right
1671451711187,48.363,0.1,0.014,-0.031,0.980665,0.1372931,-0.30400615,48.759,353.484,right
1671451711197,48.373,0.109,0.007,-0.023,1.06892485,0.06864655,-0.22555294999999997,48.769,353.574,right
1671451711206,48.382,0.12,-0.004,-0.009,1.1767979999999998,-0.0392266,-0.08825984999999999,48.78,353.644,right
1671451711216,48.392,0.113,0.0,0.006,1.10815145,0.0,0.0588399,48.79,353.707,right
1671451711226,48.402,0.081,0.009,0.015,0.7943386499999999,0.08825984999999999,0.14709974999999997,48.799,353.756,right
1671451711237,48.413,0.033,0.015,0.014,0.32361945,0.14709974999999997,0.1372931,48.809,353.791,right
1671451711245,48.421,-0.004,0.007,0.004,-0.0392266,0.06864655,0.0392266,48.819,353.81,right
1671451711257,48.433,-0.028,-0.004,0.01,-0.2745862,-0.0392266,0.0980665,48.829,353.825,right
1671451711266,48.442,-0.053,-0.021,0.029,-0.5197524499999999,-0.20593965,0.28439285,48.84,353.835,right
1671451711276,48.452,-0.094,-0.027,0.046,-0.9218251,-0.26477955,0.45110589999999995,48.848,353.83,right
1671451711287,48.463,-0.136,-0.032,0.046,-1.3337044,-0.3138128,0.45110589999999995,48.859,353.824,right
1671451711297,48.473,-0.16,-0.042,0.038,-1.569064,-0.4118793,0.37265269999999995,48.869,353.813,right
1671451711306,48.482,-0.161,-0.06,0.027,-1.57887065,-0.5883989999999999,0.26477955,48.879,353.8,right
1671451711316,48.492,-0.142,-0.078,0.019,-1.3925442999999997,-0.7649187,0.18632634999999997,48.888,353.787,right
1671451711326,48.502,-0.126,-0.07,0.028,-1.2356379,-0.6864655000000001,0.2745862,48.9,353.77,right
1671451711336,48.512,-0.103,-0.048,0.045,-1.01008495,-0.4707192,0.44129925,48.909,353.742,right
1671451711347,48.523,-0.08,-0.04,0.054,-0.784532,-0.392266,0.5295591,48.919,353.708,right
1671451711355,48.531,-0.058,-0.04,0.054,-0.5687857,-0.392266,0.5295591,48.929,353.666,right
1671451711366,48.542,-0.049,-0.04,0.052,-0.48052585,-0.392266,0.5099457999999999,48.938,353.621,right
1671451711376,48.552,-0.035,-0.043,0.048,-0.34323275000000003,-0.4216859499999999,0.4707192,48.948,353.568,right
1671451711386,48.562,-0.022,-0.039,0.039,-0.21574629999999997,-0.38245935,0.38245935,48.958,353.507,right
1671451711395,48.571,-0.021,-0.03,0.029,-0.20593965,-0.29419949999999995,0.28439285,48.969,353.439,right
1671451711405,48.581,-0.035,-0.026,0.016,-0.34323275000000003,-0.25497289999999995,0.1569064,48.977,353.358,right
1671451711415,48.591,-0.033,-0.031,-0.007,-0.32361945,-0.30400615,-0.06864655,48.988,353.28,right
1671451711426,48.602,-0.019,-0.038,-0.018,-0.18632634999999997,-0.37265269999999995,-0.17651969999999997,48.998,353.195,right
1671451711436,48.612,-0.013,-0.039,-0.02,-0.12748644999999997,-0.38245935,-0.196133,49.008,353.114,right
1671451711445,48.621,-0.006,-0.034,-0.02,-0.0588399,-0.3334261,-0.196133,49.018,353.032,right
1671451711455,48.631,0.002,-0.025,-0.031,0.0196133,-0.24516625,-0.30400615,49.027,352.959,right
1671451711465,48.641,0.012,-0.022,-0.043,0.1176798,-0.21574629999999997,-0.4216859499999999,49.037,352.889,right
1671451711475,48.651,0.019,-0.028,-0.044,0.18632634999999997,-0.2745862,-0.43149259999999995,49.048,352.817,right
1671451711486,48.662,0.027,-0.032,-0.037,0.26477955,-0.3138128,-0.36284605,49.058,352.761,right
1671451711495,48.671,0.043,-0.046,-0.038,0.4216859499999999,-0.45110589999999995,-0.37265269999999995,49.068,352.727,right
1671451711505,48.681,0.026,-0.035,-0.029,0.25497289999999995,-0.34323275000000003,-0.28439285,49.077,352.7,right
1671451711515,48.691,-0.004,-0.019,-0.013,-0.0392266,-0.18632634999999997,-0.12748644999999997,49.087,352.683,right
1671451711525,48.701,0.036,-0.039,-0.001,0.35303939999999995,-0.38245935,-0.00980665,49.098,352.684,right
1671451711536,48.712,0.084,-0.052,0.01,0.8237586,-0.5099457999999999,0.0980665,49.108,352.704,right
1671451711544,48.72,0.055,-0.025,0.001,0.53936575,-0.24516625,0.00980665,49.117,352.736,right
1671451711555,48.731,0.002,-0.012,-0.015,0.0196133,-0.1176798,-0.14709974999999997,49.127,352.766,right
1671451711565,48.741,-0.009,-0.019,0.0,-0.08825984999999999,-0.18632634999999997,0.0,49.137,352.793,right
1671451711575,48.751,0.012,-0.022,-0.002,0.1176798,-0.21574629999999997,-0.0196133,49.147,352.833,right
1671451711585,48.761,0.017,-0.021,0.004,0.16671305,-0.20593965,0.0392266,49.156,352.873,right
1671451711594,48.77,-0.012,-0.025,0.009,-0.1176798,-0.24516625,0.08825984999999999,49.166,352.899,right
1671451711604,48.78,-0.013,-0.02,0.01,-0.12748644999999997,-0.196133,0.0980665,49.177,352.924,right
1671451711615,48.791,0.008,-0.014,0.001,0.0784532,-0.1372931,0.00980665,49.187,352.948,right
1671451711625,48.801,0.0,-0.008,-0.002,0.0,-0.0784532,-0.0196133,49.196,352.968,right
1671451711634,48.81,-0.023,-0.004,0.006,-0.22555294999999997,-0.0392266,0.0588399,49.206,352.981,right
1671451711644,48.82,-0.002,-0.017,0.016,-0.0196133,-0.16671305,0.1569064,49.216,352.978,right
1671451711654,48.83,0.03,-0.014,0.028,0.29419949999999995,-0.1372931,0.2745862,49.226,352.969,right
1671451711664,48.84,0.028,-0.008,0.025,0.2745862,-0.0784532,0.24516625,49.237,352.954,right
1671451711675,48.851,0.007,-0.006,0.022,0.06864655,-0.0588399,0.21574629999999997,49.245,352.937,right
1671451711683,48.859,-0.0,-0.001,0.023,-0.0,-0.00980665,0.22555294999999997,49.256,352.927,right
1671451711694,48.87,-0.008,-0.009,0.042,-0.0784532,-0.08825984999999999,0.4118793,49.266,352.925,right
1671451711704,48.88,-0.028,0.004,0.031,-0.2745862,0.0392266,0.30400615,49.276,352.933,right
1671451711714,48.89,-0.029,-0.002,0.013,-0.28439285,-0.0196133,0.12748644999999997,49.285,352.949,right
1671451711724,48.9,-0.027,-0.015,0.005,-0.26477955,-0.14709974999999997,0.04903325,49.295,352.981,right
1671451711733,48.909,-0.027,-0.018,0.014,-0.26477955,-0.17651969999999997,0.1372931,49.306,353.017,right
1671451711745,48.921,-0.026,-0.028,0.017,-0.25497289999999995,-0.2745862,0.16671305,49.316,353.059,right
1671451711754,48.93,-0.03,-0.05,0.027,-0.29419949999999995,-0.4903325,0.26477955,49.326,353.101,right
1671451711764,48.94,-0.046,-0.055,0.034,-0.45110589999999995,-0.53936575,0.3334261,49.335,353.146,right
1671451711774,48.95,-0.064,-0.045,0.027,-0.6276256,-0.44129925,0.26477955,49.345,353.187,right
1671451711783,48.959,-0.11,-0.031,0.019,-1.0787315,-0.30400615,0.18632634999999997,49.355,353.228,right
1671451711793,48.969,-0.147,-0.04,-0.01,-1.4415775499999999,-0.392266,-0.0980665,49.366,353.277,right
1671451711804,48.98,-0.139,-0.06,-0.033,-1.36312435,-0.5883989999999999,-0.32361945,49.374,353.333,right
1671451711814,48.99,-0.096,-0.08,-0.024,-0.9414384,-0.784532,-0.2353596,49.386,353.401,right
1671451711824,49.0,-0.054,-0.094,0.003,-0.5295591,-0.9218251,0.02941995,49.395,353.467,right
1671451711834,49.01,-0.032,-0.092,0.016,-0.3138128,-0.9022117999999999,0.1569064,49.405,353.527,right
1671451711843,49.019,0.003,-0.094,0.027,0.02941995,-0.9218251,0.26477955,49.414,353.572,right
1671451711853,49.029,0.024,-0.09,0.049,0.2353596,-0.8825985,0.48052585,49.424,353.61,right
1671451711864,49.04,0.029,-0.08,0.056,0.28439285,-0.784532,0.5491724,49.434,353.635,right
1671451711874,49.05,0.034,-0.068,0.04,0.3334261,-0.6668522,0.392266,49.445,353.645,right
1671451711883,49.059,0.03,-0.047,0.028,0.29419949999999995,-0.46091255,0.2745862,49.455,353.639,right
1671451711893,49.069,0.019,-0.022,0.023,0.18632634999999997,-0.21574629999999997,0.22555294999999997,49.464,353.634,right
1671451711903,49.079,0.022,-0.004,0.016,0.21574629999999997,-0.0392266,0.1569064,49.474,353.631,right
1671451711913,49.089,0.035,0.014,0.017,0.34323275000000003,0.1372931,0.16671305,49.484,353.636,right
1671451711924,49.1,0.062,0.032,0.022,0.6080123,0.3138128,0.21574629999999997,49.494,353.648,right
1671451711932,49.108,0.09,0.044,0.023,0.8825985,0.43149259999999995,0.22555294999999997,49.503,353.67,right
1671451711943,49.119,0.113,0.061,0.008,1.10815145,0.5982056499999999,0.0784532,49.514,353.695,right
1671451711953,49.129,0.14,0.073,-0.008,1.3729310000000001,0.7158854499999999,-0.0784532,49.524,353.724,right
1671451711963,49.139,0.169,0.069,-0.017,1.65732385,0.67665885,-0.16671305,49.534,353.753,right
1671451711972,49.148,0.178,0.075,-0.035,1.7455836999999998,0.73549875,-0.34323275000000003,49.544,353.776,right
1671451711982,49.158,0.163,0.085,-0.068,1.5984839499999999,0.83356525,-0.6668522,49.553,353.795,right
1671451711993,49.169,0.138,0.095,-0.097,1.3533177,0.93163175,-0.9512450499999999,49.563,353.803,right
1671451712003,49.179,0.116,0.086,-0.115,1.1375714,0.8433718999999998,-1.12776475,49.574,353.81,right
1671451712013,49.189,0.106,0.058,-0.123,1.0395048999999998,0.5687857,-1.2062179499999999,49.584,353.812,right
1671451712022,49.198,0.104,0.022,-0.129,1.0198915999999998,0.21574629999999997,-1.26505785,49.593,353.822,right
1671451712032,49.208,0.088,-0.021,-0.127,0.8629851999999999,-0.20593965,-1.24544455,49.603,353.839,right
1671451712042,49.218,0.069,-0.07,-0.13,0.67665885,-0.6864655000000001,-1.2748645,49.613,353.872,right
1671451712053,49.229,0.047,-0.121,-0.127,0.46091255,-1.1866046499999998,-1.24544455,49.623,353.92,right
1671451712063,49.239,0.012,-0.149,-0.114,0.1176798,-1.46119085,-1.1179581,49.634,353.986,right
1671451712073,49.249,-0.039,-0.163,-0.103,-0.38245935,-1.5984839499999999,-1.01008495,49.642,354.071,right
1671451712082,49.258,-0.098,-0.182,-0.083,-0.9610517,-1.7848102999999997,-0.81395195,49.653,354.171,right
1671451712092,49.268,-0.178,-0.209,-0.064,-1.7455836999999998,-2.04958985,-0.6276256,49.663,354.283,right
1671451712102,49.278,-0.239,-0.224,-0.045,-2.3437893499999998,-2.1966896,-0.44129925,49.673,354.403,right
1671451712113,49.289,-0.268,-0.214,-0.009,-2.6281822,-2.0986230999999997,-0.08825984999999999,49.682,354.53,right
1671451712121,49.297,-0.253,-0.189,0.031,-2.4810824499999997,-1.85345685,0.30400615,49.692,354.662,right
1671451712132,49.308,-0.222,-0.157,0.074,-2.1770763,-1.53964405,0.7256921,49.702,354.79,right
1671451712142,49.318,-0.204,-0.106,0.113,-2.0005566,-1.0395048999999998,1.10815145,49.713,354.896,right
1671451712152,49.328,-0.183,-0.064,0.127,-1.7946169499999998,-0.6276256,1.24544455,49.722,354.987,right
1671451712162,49.338,-0.151,-0.025,0.12,-1.4808041499999998,-0.24516625,1.1767979999999998,49.732,355.047,right
1671451712171,49.347,-0.095,0.008,0.112,-0.93163175,0.0784532,1.0983448,49.742,355.074,right
1671451712182,49.358,-0.043,0.035,0.109,-0.4216859499999999,0.34323275000000003,1.06892485,49.752,355.066,right
1671451712192,49.368,-0.007,0.057,0.102,-0.06864655,0.55897905,1.0002783,49.763,355.025,right
1671451712202,49.378,0.016,0.066,0.096,0.1569064,0.6472389,0.9414384,49.771,354.949,right
1671451712212,49.388,0.035,0.066,0.088,0.34323275000000003,0.6472389,0.8629851999999999,49.782,354.844,right
1671451712221,49.397,0.031,0.062,0.076,0.30400615,0.6080123,0.7453053999999999,49.792,354.717,right
1671451712231,49.407,0.003,0.057,0.054,0.02941995,0.55897905,0.5295591,49.802,354.564,right
1671451712242,49.418,-0.027,0.044,0.019,-0.26477955,0.43149259999999995,0.18632634999999997,49.811,354.399,right
1671451712252,49.428,-0.035,0.018,-0.006,-0.34323275000000003,0.17651969999999997,-0.0588399,49.821,354.229,right
1671451712262,49.438,-0.031,-0.014,-0.017,-0.30400615,-0.1372931,-0.16671305,49.831,354.054,right
1671451712271,49.447,-0.04,-0.039,-0.021,-0.392266,-0.38245935,-0.20593965,49.842,353.887,right
1671451712281,49.457,-0.048,-0.054,-0.024,-0.4707192,-0.5295591,-0.2353596,49.852,353.726,right
1671451712291,49.467,-0.045,-0.067,-0.022,-0.44129925,-0.65704555,-0.21574629999999997,49.861,353.575,right
1671451712302,49.478,-0.039,-0.072,-0.018,-0.38245935,-0.7060787999999999,-0.17651969999999997,49.871,353.434,right
1671451712312,49.488,-0.015,-0.077,-0.014,-0.14709974999999997,-0.7551120499999999,-0.1372931,49.881,353.308,right
1671451712322,49.498,0.019,-0.078,-0.007,0.18632634999999997,-0.7649187,-0.06864655,49.891,353.193,right
1671451712331,49.507,0.052,-0.072,-0.001,0.5099457999999999,-0.7060787999999999,-0.00980665,49.9,353.097,right
1671451712341,49.517,0.07,-0.065,-0.002,0.6864655000000001,-0.63743225,-0.0196133,49.91,353.02,right
1671451712351,49.527,0.082,-0.06,-0.004,0.8041453,-0.5883989999999999,-0.0392266,49.921,352.961,right
1671451712362,49.538,0.093,-0.052,-0.001,0.9120184499999999,-0.5099457999999999,-0.00980665,49.931,352.927,right
1671451712370,49.546,0.088,-0.042,-0.005,0.8629851999999999,-0.4118793,-0.04903325,49.94,352.912,right
1671451712381,49.557,0.08,-0.028,-0.013,0.784532,-0.2745862,-0.12748644999999997,49.95,352.913,right
1671451712391,49.567,0.078,-0.007,-0.012,0.7649187,-0.06864655,-0.1176798,49.96,352.931,right
1671451712401,49.577,0.065,-0.0,-0.013,0.63743225,-0.0,-0.12748644999999997,49.971,352.963,right
1671451712410,49.586,0.051,0.024,-0.014,0.50013915,0.2353596,-0.1372931,49.981,353.006,right
1671451712420,49.596,0.029,0.022,-0.023,0.28439285,0.21574629999999997,-0.22555294999999997,49.99,353.057,right
1671451712431,49.607,0.006,0.025,-0.017,0.0588399,0.24516625,-0.16671305,50.0,353.113,right
1671451712441,49.617,-0.009,0.024,-0.008,-0.08825984999999999,0.2353596,-0.0784532,50.01,353.172,right
1671451712451,49.627,-0.014,0.008,-0.008,-0.1372931,0.0784532,-0.0784532,50.02,353.23,right
1671451712461,49.637,-0.028,0.006,0.007,-0.2745862,0.0588399,0.06864655,50.029,353.283,right
1671451712470,49.646,-0.027,-0.01,0.01,-0.26477955,-0.0980665,0.0980665,50.041,353.328,right
1671451712480,49.656,-0.025,-0.025,0.018,-0.24516625,-0.24516625,0.17651969999999997,50.05,353.357,right
1671451712491,49.667,-0.025,-0.03,0.024,-0.24516625,-0.29419949999999995,0.2353596,50.06,353.365,right
1671451712501,49.677,-0.023,-0.035,0.028,-0.22555294999999997,-0.34323275000000003,0.2745862,50.07,353.355,right
1671451712510,49.686,-0.016,-0.037,0.028,-0.1569064,-0.36284605,0.2745862,50.079,353.331,right
1671451712520,49.696,-0.013,-0.033,0.024,-0.12748644999999997,-0.32361945,0.2353596,50.089,353.291,right
1671451712530,49.706,-0.011,-0.036,0.016,-0.10787314999999999,-0.35303939999999995,0.1569064,50.099,353.246,right
1671451712540,49.716,-0.015,-0.038,0.007,-0.14709974999999997,-0.37265269999999995,0.06864655,50.11,353.191,right
1671451712551,49.727,-0.012,-0.035,-0.0,-0.1176798,-0.34323275000000003,-0.0,50.12,353.135,right
1671451712561,49.737,-0.007,-0.033,-0.006,-0.06864655,-0.32361945,-0.0588399,50.129,353.084,right
1671451712570,49.746,0.003,-0.03,-0.009,0.02941995,-0.29419949999999995,-0.08825984999999999,50.139,353.027,right
1671451712580,49.756,0.013,-0.026,-0.011,0.12748644999999997,-0.25497289999999995,-0.10787314999999999,50.139,353.027,right
1671451712590,49.766,0.017,-0.028,-0.019,0.16671305,-0.2745862,-0.18632634999999997,50.139,353.027,right
1671451712600,49.776,0.015,-0.028,-0.018,0.14709974999999997,-0.2745862,-0.17651969999999997,50.139,353.027,right
1671451712609,49.785,0.009,-0.015,-0.008,0.08825984999999999,-0.14709974999999997,-0.0784532,50.139,353.027,right
1671451712620,49.796,0.015,-0.02,-0.013,0.14709974999999997,-0.196133,-0.12748644999999997,50.139,353.027,right
1671451712630,49.806,0.009,-0.025,-0.008,0.08825984999999999,-0.24516625,-0.0784532,50.139,353.027,right
1671451712640,49.816,0.011,-0.025,-0.001,0.10787314999999999,-0.24516625,-0.00980665,50.139,353.027,right
1671451712650,49.826,-0.002,-0.031,0.002,-0.0196133,-0.30400615,0.0196133,50.139,353.027,right
1671451712659,49.835,-0.011,-0.022,0.007,-0.10787314999999999,-0.21574629999999997,0.06864655,50.139,353.027,right
1671451712669,49.845,-0.016,-0.028,0.007,-0.1569064,-0.2745862,0.06864655,50.139,353.027,right
1671451712680,49.856,-0.018,-0.03,0.011,-0.17651969999999997,-0.29419949999999995,0.10787314999999999,50.139,353.027,right
1671451712690,49.866,-0.016,-0.028,0.02,-0.1569064,-0.2745862,0.196133,50.139,353.027,right
1671451712700,49.876,-0.016,-0.032,0.021,-0.1569064,-0.3138128,0.20593965,50.139,353.027,right
1671451712709,49.885,-0.025,-0.022,0.029,-0.24516625,-0.21574629999999997,0.28439285,50.139,353.027,right
1671451712719,49.895,-0.023,-0.022,0.025,-0.22555294999999997,-0.21574629999999997,0.24516625,50.139,353.027,right
1671451712729,49.905,-0.02,-0.029,0.023,-0.196133,-0.28439285,0.22555294999999997,50.139,353.027,right
1671451712740,49.916,-0.013,-0.033,0.026,-0.12748644999999997,-0.32361945,0.25497289999999995,50.139,353.027,right
1671451712748,49.924,-0.008,-0.033,0.023,-0.0784532,-0.32361945,0.22555294999999997,50.139,353.027,right
1671451712759,49.935,-0.008,-0.032,0.023,-0.0784532,-0.3138128,0.22555294999999997,50.139,353.027,right
1671451712769,49.945,-0.02,-0.025,0.02,-0.196133,-0.24516625,0.196133,50.139,353.027,right
1671451712779,49.955,-0.014,-0.022,0.013,-0.1372931,-0.21574629999999997,0.12748644999999997,50.139,353.027,right
1671451712789,49.965,-0.009,-0.028,0.007,-0.08825984999999999,-0.2745862,0.06864655,50.139,353.027,right
1671451712798,49.974,-0.018,-0.015,0.014,-0.17651969999999997,-0.14709974999999997,0.1372931,50.139,353.027,right
1671451712810,49.986,-0.016,-0.016,0.021,-0.1569064,-0.1569064,0.20593965,50.139,353.027,right
1671451712819,49.995,-0.011,-0.019,0.016,-0.10787314999999999,-0.18632634999999997,0.1569064,50.139,353.027,right
1671451712829,50.005,-0.007,-0.017,0.014,-0.06864655,-0.16671305,0.1372931,50.139,353.027,right
1671451712839,50.015,-0.003,-0.019,0.01,-0.02941995,-0.18632634999999997,0.0980665,50.139,353.027,right
1671451712848,50.024,-0.006,-0.019,0.005,-0.0588399,-0.18632634999999997,0.04903325,50.139,353.027,right
1671451712858,50.034,-0.01,-0.018,0.003,-0.0980665,-0.17651969999999997,0.02941995,50.139,353.027,right
1671451712869,50.045,-0.009,-0.022,0.003,-0.08825984999999999,-0.21574629999999997,0.02941995,50.139,353.027,right
1671451712879,50.055,-0.01,-0.023,0.003,-0.0980665,-0.22555294999999997,0.02941995,50.139,353.027,right
1671451712889,50.065,-0.009,-0.02,0.003,-0.08825984999999999,-0.196133,0.02941995,50.139,353.027,right
1671451712898,50.074,-0.008,-0.023,0.002,-0.0784532,-0.22555294999999997,0.0196133,50.139,353.027,right
1671451712908,50.084,-0.002,-0.032,-0.002,-0.0196133,-0.3138128,-0.0196133,50.139,353.027,right
1671451712918,50.094,0.01,-0.042,0.002,0.0980665,-0.4118793,0.0196133,50.139,353.027,right
1671451712929,50.105,0.014,-0.041,0.003,0.1372931,-0.40207265,0.02941995,50.139,353.027,right
1671451712939,50.115,0.01,-0.038,0.002,0.0980665,-0.37265269999999995,0.0196133,50.139,353.027,right
1671451712948,50.124,0.004,-0.035,-0.003,0.0392266,-0.34323275000000003,-0.02941995,50.139,353.027,right
1671451712958,50.134,-0.005,-0.034,-0.008,-0.04903325,-0.3334261,-0.0784532,50.139,353.027,right
1671451712968,50.144,-0.003,-0.035,-0.011,-0.02941995,-0.34323275000000003,-0.10787314999999999,50.139,353.027,right
1671451712978,50.154,-0.0,-0.038,-0.01,-0.0,-0.37265269999999995,-0.0980665,50.139,353.027,right
1671451712989,50.165,-0.005,-0.036,-0.007,-0.04903325,-0.35303939999999995,-0.06864655,50.139,353.027,right
1671451712997,50.173,-0.004,-0.031,-0.005,-0.0392266,-0.30400615,-0.04903325,50.139,353.027,right
1671451713008,50.184,-0.011,-0.032,-0.003,-0.10787314999999999,-0.3138128,-0.02941995,50.139,353.027,right
1671451713018,50.194,-0.018,-0.023,0.003,-0.17651969999999997,-0.22555294999999997,0.02941995,50.139,353.027,right
1671451713028,50.204,-0.01,-0.031,-0.002,-0.0980665,-0.30400615,-0.0196133,50.139,353.027,right
1671451713038,50.214,-0.012,-0.029,0.003,-0.1176798,-0.28439285,0.02941995,50.139,353.027,right
1671451713049,50.225,-0.011,-0.025,0.005,-0.10787314999999999,-0.24516625,0.04903325,50.139,353.027,right
1671451713057,50.233,-0.009,-0.03,0.005,-0.08825984999999999,-0.29419949999999995,0.04903325,50.139,353.027,right
1671451713068,50.244,-0.01,-0.033,0.003,-0.0980665,-0.32361945,0.02941995,50.139,353.027,right
1671451713078,50.254,-0.014,-0.023,0.007,-0.1372931,-0.22555294999999997,0.06864655,50.139,353.027,right
1671451713088,50.264,-0.01,-0.033,0.008,-0.0980665,-0.32361945,0.0784532,50.139,353.027,right
1671451713097,50.273,-0.012,-0.024,0.016,-0.1176798,-0.2353596,0.1569064,50.139,353.027,right
1671451713107,50.283,-0.004,-0.031,0.015,-0.0392266,-0.30400615,0.14709974999999997,50.139,353.027,right
1671451713118,50.294,-0.003,-0.031,0.012,-0.02941995,-0.30400615,0.1176798,50.139,353.027,right
1671451713128,50.304,-0.008,-0.031,0.01,-0.0784532,-0.30400615,0.0980665,50.139,353.027,right
1671451713137,50.313,-0.014,-0.029,0.009,-0.1372931,-0.28439285,0.08825984999999999,50.139,353.027,right
1671451713147,50.323,-0.015,-0.025,0.004,-0.14709974999999997,-0.24516625,0.0392266,50.139,353.027,right
1671451713157,50.333,-0.016,-0.022,0.004,-0.1569064,-0.21574629999999997,0.0392266,50.139,353.027,right
1671451713167,50.343,-0.011,-0.02,0.001,-0.10787314999999999,-0.196133,0.00980665,50.139,353.027,right
1671451713178,50.354,-0.012,-0.02,-0.002,-0.1176798,-0.196133,-0.0196133,50.139,353.027,right
1671451713186,50.362,-0.013,-0.022,-0.002,-0.12748644999999997,-0.21574629999999997,-0.0196133,50.139,353.027,right
1671451713197,50.373,-0.014,-0.027,-0.004,-0.1372931,-0.26477955,-0.0392266,50.139,353.027,right
1671451713207,50.383,-0.01,-0.029,-0.006,-0.0980665,-0.28439285,-0.0588399,50.139,353.027,right
1671451713217,50.393,-0.002,-0.027,-0.004,-0.0196133,-0.26477955,-0.0392266,50.139,353.027,right
1671451713227,50.403,0.001,-0.032,-0.001,0.00980665,-0.3138128,-0.00980665,50.139,353.027,right
1671451713236,50.412,0.009,-0.029,0.004,0.08825984999999999,-0.28439285,0.0392266,50.139,353.027,right
